%YAML 1.1
%TAG !u! tag:unity3d.com,2011:
--- !u!687078895 &4343727234628468602
SpriteAtlas:
  m_ObjectHideFlags: 0
  m_CorrespondingSourceObject: {fileID: 0}
  m_PrefabInstance: {fileID: 0}
  m_PrefabAsset: {fileID: 0}
  m_Name: atlas_sprites
  m_EditorData:
    serializedVersion: 2
    textureSettings:
      serializedVersion: 2
      anisoLevel: 1
      compressionQuality: 50
      maxTextureSize: 2048
      textureCompression: 0
      filterMode: 1
      generateMipMaps: 0
      readable: 0
      crunchedCompression: 0
      sRGB: 1
    platformSettings:
    - serializedVersion: 3
      m_BuildTarget: DefaultTexturePlatform
      m_MaxTextureSize: 4096
      m_ResizeAlgorithm: 0
      m_TextureFormat: -1
      m_TextureCompression: 1
      m_CompressionQuality: 70
      m_CrunchedCompression: 1
      m_AllowsAlphaSplitting: 0
      m_Overridden: 0
      m_AndroidETC2FallbackOverride: 0
      m_ForceMaximumCompressionQuality_BC6H_BC7: 1
    - serializedVersion: 3
      m_BuildTarget: WebGL
      m_MaxTextureSize: 4096
      m_ResizeAlgorithm: 0
      m_TextureFormat: 3
      m_TextureCompression: 1
      m_CompressionQuality: 50
      m_CrunchedCompression: 0
      m_AllowsAlphaSplitting: 0
      m_Overridden: 0
      m_AndroidETC2FallbackOverride: 0
      m_ForceMaximumCompressionQuality_BC6H_BC7: 1
    packingSettings:
      serializedVersion: 2
      padding: 4
      blockOffset: 1
      allowAlphaSplitting: 0
      enableRotation: 1
      enableTightPacking: 1
    variantMultiplier: 1
    packables:
    - {fileID: 2800000, guid: 6be473ba5035fdc4592d729c00312d40, type: 3}
    - {fileID: 2800000, guid: ad7e752b81ec1b0418f77e9752982818, type: 3}
    - {fileID: 2800000, guid: 906ecf3a7bf42ab4f8b5c3708fec76f5, type: 3}
    - {fileID: 2800000, guid: e1f8bf41f1a09684da8eebd91257592d, type: 3}
    - {fileID: 2800000, guid: f0ee0ed490a2e12448dd133f84eb3891, type: 3}
    - {fileID: 2800000, guid: e4d2188a392789248a5866234bd45301, type: 3}
    - {fileID: 2800000, guid: 6c01b9387f02a1a438884a5dbe8c0e5a, type: 3}
    - {fileID: 2800000, guid: 6859e0c733192d44cb2c0834a4d118e1, type: 3}
    - {fileID: 2800000, guid: cdb62178fbcb52544b8906f80e742dd6, type: 3}
    - {fileID: 2800000, guid: c1394dd0db7194444b9d977735d1c0ae, type: 3}
    totalSpriteSurfaceArea: 942644
    bindAsDefault: 1
  m_MasterAtlas: {fileID: 0}
  m_PackedSprites:
  - {fileID: 21300000, guid: c1394dd0db7194444b9d977735d1c0ae, type: 3}
  - {fileID: 21300000, guid: e1f8bf41f1a09684da8eebd91257592d, type: 3}
  - {fileID: 21300000, guid: f0ee0ed490a2e12448dd133f84eb3891, type: 3}
  - {fileID: 21300000, guid: 6859e0c733192d44cb2c0834a4d118e1, type: 3}
  - {fileID: 21300000, guid: 6c01b9387f02a1a438884a5dbe8c0e5a, type: 3}
  - {fileID: 21300000, guid: cdb62178fbcb52544b8906f80e742dd6, type: 3}
  - {fileID: 21300000, guid: 906ecf3a7bf42ab4f8b5c3708fec76f5, type: 3}
  - {fileID: 21300000, guid: e4d2188a392789248a5866234bd45301, type: 3}
  - {fileID: 21300000, guid: 6be473ba5035fdc4592d729c00312d40, type: 3}
  - {fileID: 21300000, guid: ad7e752b81ec1b0418f77e9752982818, type: 3}
  m_PackedSpriteNamesToIndex:
  - vertical billboard_3
  - At the stop_4
  - Horizontal billboard_1
  - vertical billboard_1
  - Horizontal billboard_3
  - vertical billboard_2
  - At the stop_3
  - Horizontal billboard_2
  - At the stop_1
  - At the stop_2
  m_Tag: atlas_sprites
  m_IsVariant: 0
