%YAML 1.1
%TAG !u! tag:unity3d.com,2011:
--- !u!687078895 &4343727234628468602
SpriteAtlas:
  m_ObjectHideFlags: 0
  m_CorrespondingSourceObject: {fileID: 0}
  m_PrefabInstance: {fileID: 0}
  m_PrefabAsset: {fileID: 0}
  m_Name: New Sprite Atlas
  m_EditorData:
    serializedVersion: 2
    textureSettings:
      serializedVersion: 2
      anisoLevel: 1
      compressionQuality: 50
      maxTextureSize: 2048
      textureCompression: 0
      filterMode: 1
      generateMipMaps: 0
      readable: 0
      crunchedCompression: 0
      sRGB: 1
    platformSettings:
    - serializedVersion: 3
      m_BuildTarget: DefaultTexturePlatform
      m_MaxTextureSize: 2048
      m_ResizeAlgorithm: 0
      m_TextureFormat: -1
      m_TextureCompression: 1
      m_CompressionQuality: 10
      m_CrunchedCompression: 1
      m_AllowsAlphaSplitting: 0
      m_Overridden: 0
      m_AndroidETC2FallbackOverride: 0
      m_ForceMaximumCompressionQuality_BC6H_BC7: 1
    packingSettings:
      serializedVersion: 2
      padding: 4
      blockOffset: 1
      allowAlphaSplitting: 0
      enableRotation: 1
      enableTightPacking: 1
    variantMultiplier: 1
    packables:
    - {fileID: 2800000, guid: 8ad091309d15f5c428ddfca20bd4a0ca, type: 3}
    - {fileID: 2800000, guid: aa840e76554a21145abe1dce09e59552, type: 3}
    - {fileID: 2800000, guid: f069dad5529981a46825b049b708f0d8, type: 3}
    totalSpriteSurfaceArea: 1572864
    bindAsDefault: 1
  m_MasterAtlas: {fileID: 0}
  m_PackedSprites:
  - {fileID: 21300000, guid: 8ad091309d15f5c428ddfca20bd4a0ca, type: 3}
  - {fileID: 21300000, guid: f069dad5529981a46825b049b708f0d8, type: 3}
  - {fileID: 21300000, guid: aa840e76554a21145abe1dce09e59552, type: 3}
  m_PackedSpriteNamesToIndex:
  - coin_fuel
  - coin_speed
  - coin_inv
  m_Tag: New Sprite Atlas
  m_IsVariant: 0
