%YAML 1.1
%TAG !u! tag:unity3d.com,2011:
--- !u!21 &2100000
Material:
  serializedVersion: 6
  m_ObjectHideFlags: 0
  m_CorrespondingSourceObject: {fileID: 0}
  m_PrefabInternal: {fileID: 0}
  m_Name: m_yataxi_body
  m_Shader: {fileID: 4800000, guid: 66b1f03014897744eab188c1ded22192, type: 3}
  m_ShaderKeywords: _EMISSION _SMOOTHNESS_TEXTURE_ALBEDO_CHANNEL_A _SPECULARHIGHLIGHTS_OFF
  m_LightmapFlags: 2
  m_EnableInstancingVariants: 0
  m_DoubleSidedGI: 0
  m_CustomRenderQueue: 3000
  stringTagMap: {}
  disabledShaderPasses: []
  m_SavedProperties:
    serializedVersion: 3
    m_TexEnvs:
    - _AlphaTex:
        m_Texture: {fileID: 0}
        m_Scale: {x: 1, y: 1}
        m_Offset: {x: 0, y: 0}
    - _BumpMap:
        m_Texture: {fileID: 0}
        m_Scale: {x: 1, y: 1}
        m_Offset: {x: 0, y: 0}
    - _Cube:
        m_Texture: {fileID: 0}
        m_Scale: {x: 1, y: 1}
        m_Offset: {x: 0, y: 0}
    - _DetailAlbedoMap:
        m_Texture: {fileID: 0}
        m_Scale: {x: 1, y: 1}
        m_Offset: {x: 0, y: 0}
    - _DetailMask:
        m_Texture: {fileID: 0}
        m_Scale: {x: 1, y: 1}
        m_Offset: {x: 0, y: 0}
    - _DetailNormalMap:
        m_Texture: {fileID: 0}
        m_Scale: {x: 1, y: 1}
        m_Offset: {x: 0, y: 0}
    - _DetailTex:
        m_Texture: {fileID: 0}
        m_Scale: {x: 1, y: 1}
        m_Offset: {x: 0, y: 0}
    - _EmissionMap:
        m_Texture: {fileID: 2800000, guid: 376891e5d70afb447bb57867d0cdd6cc, type: 3}
        m_Scale: {x: 1, y: 1}
        m_Offset: {x: 0, y: 0}
    - _MainTex:
        m_Texture: {fileID: 2800000, guid: 468203f0974780d4e9f3f546e5baa34d, type: 3}
        m_Scale: {x: 1, y: 1}
        m_Offset: {x: 0, y: 0}
    - _MetallicGlossMap:
        m_Texture: {fileID: 0}
        m_Scale: {x: 1, y: 1}
        m_Offset: {x: 0, y: 0}
    - _OcclusionMap:
        m_Texture: {fileID: 0}
        m_Scale: {x: 1, y: 1}
        m_Offset: {x: 0, y: 0}
    - _ParallaxMap:
        m_Texture: {fileID: 0}
        m_Scale: {x: 1, y: 1}
        m_Offset: {x: 0, y: 0}
    - _SpecGlossMap:
        m_Texture: {fileID: 0}
        m_Scale: {x: 1, y: 1}
        m_Offset: {x: 0, y: 0}
    - _Tex:
        m_Texture: {fileID: 0}
        m_Scale: {x: 1, y: 1}
        m_Offset: {x: 0, y: 0}
    m_Floats:
    - PixelSnap: 0
    - _Alpha: 1
    - _Amount: 0
    - _Amplitude: 1
    - _BumpScale: 1
    - _Cull: 2
    - _Cutoff: 0.3
    - _CutoutThresh: 1
    - _DetailNormalMapScale: 1
    - _Distance: 1
    - _DstBlend: 0
    - _EnableExternalAlpha: 0
    - _Exposure: 1
    - _FogBottom: 0
    - _FogEnd: 0.4
    - _FogIntens: 1
    - _FogStart: 0
    - _GlossMapScale: 0.532
    - _Glossiness: 1
    - _GlossyReflections: 1
    - _Metallic: 0
    - _Middle: 1
    - _MieIntens: 0
    - _MieSize: 0.8
    - _Mode: 0
    - _OcclusionStrength: 1
    - _Parallax: 0.02
    - _Rotation: 0
    - _Shininess: 0.03
    - _SmoothnessTextureChannel: 1
    - _SpecularHighlights: 0
    - _Speed: 1
    - _SrcBlend: 1
    - _SunDir: 0
    - _Transparency: 0.5
    - _UVSec: 0
    - _WindQuality: 0
    - _ZWrite: 1
    m_Colors:
    - _BottomColor: {r: 0.8490566, g: 0.7296115, b: 0, a: 0.20392157}
    - _Color: {r: 1, g: 1, b: 1, a: 1}
    - _ColorBot: {r: 1, g: 1, b: 1, a: 1}
    - _ColorMid: {r: 1, g: 1, b: 1, a: 1}
    - _ColorTop: {r: 1, g: 1, b: 1, a: 1}
    - _Emission: {r: 0, g: 0, b: 0, a: 0}
    - _EmissionColor: {r: 0.606, g: 0.606, b: 0.606, a: 1}
    - _Flip: {r: 1, g: 1, b: 1, a: 1}
    - _FogCol: {r: 0.5, g: 0.5, b: 0.5, a: 0.5}
    - _HueVariation: {r: 1, g: 0.5, b: 0, a: 0.1}
    - _MieTint: {r: 0.5, g: 0.5, b: 0.5, a: 0.5}
    - _ReflectColor: {r: 1, g: 1, b: 1, a: 0.5}
    - _RendererColor: {r: 1, g: 1, b: 1, a: 1}
    - _SpecColor: {r: 0.2, g: 0.2, b: 0.2, a: 1}
    - _SpecularColor: {r: 0.2, g: 0.2, b: 0.2, a: 1}
    - _Tint: {r: 0.5, g: 0.5, b: 0.5, a: 0.5}
    - _TintColor: {r: 1, g: 1, b: 1, a: 1}
    - _TopColor: {r: 0.85098046, g: 0.7294118, b: 0, a: 0.2}
