%YAML 1.1
%TAG !u! tag:unity3d.com,2011:
--- !u!1045 &1
EditorBuildSettings:
  m_ObjectHideFlags: 0
  serializedVersion: 2
  m_Scenes:
  - enabled: 1
    path: Assets/MY/scenes/scene0.unity
    guid: 2b6b9b51ce329364bbe420449cd42322
  m_configObjects: {}
