%YAML 1.1
%TAG !u! tag:unity3d.com,2011:
--- !u!687078895 &4343727234628468602
SpriteAtlas:
  m_ObjectHideFlags: 0
  m_CorrespondingSourceObject: {fileID: 0}
  m_PrefabInstance: {fileID: 0}
  m_PrefabAsset: {fileID: 0}
  m_Name: atlas_other
  m_EditorData:
    serializedVersion: 2
    textureSettings:
      serializedVersion: 2
      anisoLevel: 1
      compressionQuality: 50
      maxTextureSize: 2048
      textureCompression: 0
      filterMode: 1
      generateMipMaps: 0
      readable: 0
      crunchedCompression: 0
      sRGB: 1
    platformSettings:
    - serializedVersion: 3
      m_BuildTarget: DefaultTexturePlatform
      m_MaxTextureSize: 4096
      m_ResizeAlgorithm: 0
      m_TextureFormat: -1
      m_TextureCompression: 1
      m_CompressionQuality: 70
      m_CrunchedCompression: 1
      m_AllowsAlphaSplitting: 0
      m_Overridden: 0
      m_AndroidETC2FallbackOverride: 0
      m_ForceMaximumCompressionQuality_BC6H_BC7: 1
    - serializedVersion: 3
      m_BuildTarget: WebGL
      m_MaxTextureSize: 4096
      m_ResizeAlgorithm: 0
      m_TextureFormat: 4
      m_TextureCompression: 1
      m_CompressionQuality: 50
      m_CrunchedCompression: 0
      m_AllowsAlphaSplitting: 0
      m_Overridden: 0
      m_AndroidETC2FallbackOverride: 0
      m_ForceMaximumCompressionQuality_BC6H_BC7: 1
    packingSettings:
      serializedVersion: 2
      padding: 4
      blockOffset: 1
      allowAlphaSplitting: 0
      enableRotation: 1
      enableTightPacking: 1
    variantMultiplier: 1
    packables:
    - {fileID: 2800000, guid: 535c745673ad4ca489435e45a3fda477, type: 3}
    - {fileID: 2800000, guid: d4fb39e5e25ec1e49a9acd2ab9888bba, type: 3}
    - {fileID: 2800000, guid: e0a272e8ea91cff4ea92d5d94a7bd44f, type: 3}
    - {fileID: 2800000, guid: 639e683454491294d865ece74b71d7f0, type: 3}
    totalSpriteSurfaceArea: 161874
    bindAsDefault: 1
  m_MasterAtlas: {fileID: 0}
  m_PackedSprites:
  - {fileID: 21300000, guid: 639e683454491294d865ece74b71d7f0, type: 3}
  - {fileID: 21300000, guid: 535c745673ad4ca489435e45a3fda477, type: 3}
  - {fileID: 21300000, guid: e0a272e8ea91cff4ea92d5d94a7bd44f, type: 3}
  m_PackedSpriteNamesToIndex:
  - tiretrack
  - carskin_FakeShad_2
  - passengers_d
  m_Tag: atlas_other
  m_IsVariant: 0
